{
    "process": 
    [

        { "process_1": 
           [
               {
                   "task_1":
                   {
                       "name":"Ticket created",
                       "status": fields["p1t1"],
                       "responsible": fields["p1r1"],
                       "start_time":fields["p1s1"],
                       "end_time":fields["p1e1"]

                   }

               },
               {
                   "task_2":
                   {
                       "name":"Response recieved from CS Area team",
                       "status": fields["p1t2"],
                       "responsible": fields["p1r2"],
                       "start_time":fields["p1s2"],
                       "end_time":fields["p1e2"]

                   }

               },
               {
                   "task_3":
                   {
                       "name":"Accepted/Rejected",
                       "status": fields["p1t3"],
                       "responsible": fields["p1r3"],
                       "start_time":fields["p1s3"],
                       "end_time":fields["p1e3S"]

                   }

               }



           ]

        },

        { "process_2": 
           [
               {
                   "task_1":
                   {
                       "name":"Ticket under review with CS Head Office",
                       "status": fields["p2t1"],
                       "responsible": fields["p2r1"],
                       "start_time":fields["p2s1"],
                       "end_time":fields["p2e1"]

                   }

               },
               {
                   "task_2":
                   {
                       "name":"Response recieved from CS Head Office",
                       "status": fields["p2t2"],
                       "responsible": fields["p2r2"],
                       "start_time":fields["p2s2"],
                       "end_time":fields["p2e2"]

                   }

                }
           ]
        },

        { "process_3": 
           [
               {
                   "task_1":
                   {
                       "name":"Ticket under review with Retail Head Office",
                       "status": fields["p3t1"],
                       "responsible": fields["p3r1"],
                       "start_time":fields["p3s1"],
                       "end_time":fields["p3e1"]

                   }

               },
               {
                   "task_2":
                   {
                       "name":"Response recieved from Retail Head Office",
                       "status": fields["p3t2"],
                       "responsible": fields["p3r2"],
                       "start_time":fields["p3s2"],
                       "end_time":fields["p3e2"]

                   }

               }
           ]
        }

    ]

}